Mental Health Survey
…
The output from describe() shows that many features have missing values. Next, we visualize the extent of the missing values using the naniar library.

Missing Values

Use naniars miss_var_summary() and vis_miss() functions to summarize and visualize the missing values in the features of the dataset:

# return a summary table of the missing data in each column
miss_var_summary(df)

## # A tibble: 54 x 3
##    variable           n_miss pct_miss
##    <chr>               <int>    <dbl>
##  1 psych_meds            118    67.4 
##  2 subst_dx               23    13.1 
##  3 non_subst_dx           22    12.6 
##  4 abuse                  14     8   
##  5 suicide                13     7.43
##  6 hx_of_violence         11     6.29
##  7 disorderly_conduct     11     6.29
##  8 education               9     5.14
##  9 court_order             5     2.86
## 10 alcohol                 4     2.29
## # ... with 44 more rows
…
Confirm that we have filled all NA values:

# return a summary table of the missing data in each column
miss_var_summary(df)

## # A tibble: 54 x 3
##    variable   n_miss pct_miss
##    <chr>       <int>    <dbl>
##  1 psych_meds     87   60.8  
##  2 adhd_q5         1    0.699
##  3 subst_dx        1    0.699
##  4 initial         0    0    
##  5 age             0    0    
##  6 sex             0    0    
##  7 race            0    0    
##  8 adhd_q1         0    0    
##  9 adhd_q2         0    0    
## 10 adhd_q3         0    0    
## # ... with 44 more rows
…
